EESchema Schematic File Version 4
EELAYER 30 0
EELAYER END
$Descr A4 11693 8268
encoding utf-8
Sheet 4 6
Title ""
Date ""
Rev ""
Comp ""
Comment1 ""
Comment2 ""
Comment3 ""
Comment4 ""
$EndDescr
$Comp
L Device:R R?
U 1 1 6078DBF9
P 3250 1900
AR Path="/607284F0/6078DBF9" Ref="R?"  Part="1" 
AR Path="/607284F0/6078C974/6078DBF9" Ref="R?"  Part="1" 
F 0 "R?" V 3150 1900 50  0000 C CNN
F 1 "180Ω" V 3350 1900 50  0000 C CNN
F 2 "" V 3180 1900 50  0001 C CNN
F 3 "~" H 3250 1900 50  0001 C CNN
	1    3250 1900
	-1   0    0    1   
$EndComp
$Comp
L Device:R R?
U 1 1 6078DBFF
P 2750 2700
AR Path="/607284F0/6078DBFF" Ref="R?"  Part="1" 
AR Path="/607284F0/6078C974/6078DBFF" Ref="R?"  Part="1" 
F 0 "R?" V 2850 2700 50  0000 C CNN
F 1 "47kΩ" V 2650 2700 50  0000 C CNN
F 2 "" V 2680 2700 50  0001 C CNN
F 3 "~" H 2750 2700 50  0001 C CNN
	1    2750 2700
	0    -1   -1   0   
$EndComp
$Comp
L power:GND #PWR?
U 1 1 6078DC05
P 3300 3000
AR Path="/607284F0/6078DC05" Ref="#PWR?"  Part="1" 
AR Path="/607284F0/6078C974/6078DC05" Ref="#PWR?"  Part="1" 
F 0 "#PWR?" H 3300 2750 50  0001 C CNN
F 1 "GND" H 3305 2827 50  0000 C CNN
F 2 "" H 3300 3000 50  0001 C CNN
F 3 "" H 3300 3000 50  0001 C CNN
	1    3300 3000
	1    0    0    -1  
$EndComp
Wire Wire Line
	3250 2400 3250 2500
$Comp
L power:+5V #PWR?
U 1 1 6078DC12
P 3250 1700
AR Path="/607284F0/6078DC12" Ref="#PWR?"  Part="1" 
AR Path="/607284F0/6078C974/6078DC12" Ref="#PWR?"  Part="1" 
F 0 "#PWR?" H 3250 1550 50  0001 C CNN
F 1 "+5V" H 3265 1873 50  0000 C CNN
F 2 "" H 3250 1700 50  0001 C CNN
F 3 "" H 3250 1700 50  0001 C CNN
	1    3250 1700
	1    0    0    -1  
$EndComp
$Comp
L Transistor_BJT:2N3904 Q?
U 1 1 6078DC18
P 3150 2700
AR Path="/607284F0/6078DC18" Ref="Q?"  Part="1" 
AR Path="/607284F0/6078C974/6078DC18" Ref="Q?"  Part="1" 
F 0 "Q?" H 3340 2746 50  0000 L CNN
F 1 "2N3904" H 3340 2655 50  0000 L CNN
F 2 "Package_TO_SOT_THT:TO-92_Inline" H 3350 2625 50  0001 L CIN
F 3 "https://www.onsemi.com/pub/Collateral/2N3903-D.PDF" H 3150 2700 50  0001 L CNN
	1    3150 2700
	1    0    0    -1  
$EndComp
Wire Wire Line
	2900 2700 2950 2700
Wire Wire Line
	3250 2900 3250 3000
Wire Wire Line
	3250 3000 3300 3000
Wire Wire Line
	3250 2050 3250 2100
Wire Wire Line
	3250 1700 3250 1750
$Comp
L Device:R R?
U 1 1 6078F299
P 3300 4000
AR Path="/607284F0/6078F299" Ref="R?"  Part="1" 
AR Path="/607284F0/6078C974/6078F299" Ref="R?"  Part="1" 
F 0 "R?" V 3200 4000 50  0000 C CNN
F 1 "180Ω" V 3400 4000 50  0000 C CNN
F 2 "" V 3230 4000 50  0001 C CNN
F 3 "~" H 3300 4000 50  0001 C CNN
	1    3300 4000
	-1   0    0    1   
$EndComp
$Comp
L Device:R R?
U 1 1 6078F29F
P 2800 4800
AR Path="/607284F0/6078F29F" Ref="R?"  Part="1" 
AR Path="/607284F0/6078C974/6078F29F" Ref="R?"  Part="1" 
F 0 "R?" V 2900 4800 50  0000 C CNN
F 1 "47kΩ" V 2700 4800 50  0000 C CNN
F 2 "" V 2730 4800 50  0001 C CNN
F 3 "~" H 2800 4800 50  0001 C CNN
	1    2800 4800
	0    -1   -1   0   
$EndComp
$Comp
L power:GND #PWR?
U 1 1 6078F2A5
P 3350 5100
AR Path="/607284F0/6078F2A5" Ref="#PWR?"  Part="1" 
AR Path="/607284F0/6078C974/6078F2A5" Ref="#PWR?"  Part="1" 
F 0 "#PWR?" H 3350 4850 50  0001 C CNN
F 1 "GND" H 3355 4927 50  0000 C CNN
F 2 "" H 3350 5100 50  0001 C CNN
F 3 "" H 3350 5100 50  0001 C CNN
	1    3350 5100
	1    0    0    -1  
$EndComp
Wire Wire Line
	3300 4500 3300 4600
$Comp
L power:+5V #PWR?
U 1 1 6078F2B2
P 3300 3800
AR Path="/607284F0/6078F2B2" Ref="#PWR?"  Part="1" 
AR Path="/607284F0/6078C974/6078F2B2" Ref="#PWR?"  Part="1" 
F 0 "#PWR?" H 3300 3650 50  0001 C CNN
F 1 "+5V" H 3315 3973 50  0000 C CNN
F 2 "" H 3300 3800 50  0001 C CNN
F 3 "" H 3300 3800 50  0001 C CNN
	1    3300 3800
	1    0    0    -1  
$EndComp
$Comp
L Transistor_BJT:2N3904 Q?
U 1 1 6078F2B8
P 3200 4800
AR Path="/607284F0/6078F2B8" Ref="Q?"  Part="1" 
AR Path="/607284F0/6078C974/6078F2B8" Ref="Q?"  Part="1" 
F 0 "Q?" H 3390 4846 50  0000 L CNN
F 1 "2N3904" H 3390 4755 50  0000 L CNN
F 2 "Package_TO_SOT_THT:TO-92_Inline" H 3400 4725 50  0001 L CIN
F 3 "https://www.onsemi.com/pub/Collateral/2N3903-D.PDF" H 3200 4800 50  0001 L CNN
	1    3200 4800
	1    0    0    -1  
$EndComp
Wire Wire Line
	2950 4800 3000 4800
Wire Wire Line
	3300 5000 3300 5100
Wire Wire Line
	3300 5100 3350 5100
Wire Wire Line
	3300 4150 3300 4200
Wire Wire Line
	3300 3800 3300 3850
$Comp
L Device:R R?
U 1 1 6078FEAB
P 6100 4050
AR Path="/607284F0/6078FEAB" Ref="R?"  Part="1" 
AR Path="/607284F0/6078C974/6078FEAB" Ref="R?"  Part="1" 
F 0 "R?" V 6000 4050 50  0000 C CNN
F 1 "180Ω" V 6200 4050 50  0000 C CNN
F 2 "" V 6030 4050 50  0001 C CNN
F 3 "~" H 6100 4050 50  0001 C CNN
	1    6100 4050
	-1   0    0    1   
$EndComp
$Comp
L Device:R R?
U 1 1 6078FEB1
P 5600 4850
AR Path="/607284F0/6078FEB1" Ref="R?"  Part="1" 
AR Path="/607284F0/6078C974/6078FEB1" Ref="R?"  Part="1" 
F 0 "R?" V 5700 4850 50  0000 C CNN
F 1 "47kΩ" V 5500 4850 50  0000 C CNN
F 2 "" V 5530 4850 50  0001 C CNN
F 3 "~" H 5600 4850 50  0001 C CNN
	1    5600 4850
	0    -1   -1   0   
$EndComp
$Comp
L power:GND #PWR?
U 1 1 6078FEB7
P 6150 5150
AR Path="/607284F0/6078FEB7" Ref="#PWR?"  Part="1" 
AR Path="/607284F0/6078C974/6078FEB7" Ref="#PWR?"  Part="1" 
F 0 "#PWR?" H 6150 4900 50  0001 C CNN
F 1 "GND" H 6155 4977 50  0000 C CNN
F 2 "" H 6150 5150 50  0001 C CNN
F 3 "" H 6150 5150 50  0001 C CNN
	1    6150 5150
	1    0    0    -1  
$EndComp
Wire Wire Line
	6100 4550 6100 4650
$Comp
L power:+5V #PWR?
U 1 1 6078FEC4
P 6100 3850
AR Path="/607284F0/6078FEC4" Ref="#PWR?"  Part="1" 
AR Path="/607284F0/6078C974/6078FEC4" Ref="#PWR?"  Part="1" 
F 0 "#PWR?" H 6100 3700 50  0001 C CNN
F 1 "+5V" H 6115 4023 50  0000 C CNN
F 2 "" H 6100 3850 50  0001 C CNN
F 3 "" H 6100 3850 50  0001 C CNN
	1    6100 3850
	1    0    0    -1  
$EndComp
$Comp
L Transistor_BJT:2N3904 Q?
U 1 1 6078FECA
P 6000 4850
AR Path="/607284F0/6078FECA" Ref="Q?"  Part="1" 
AR Path="/607284F0/6078C974/6078FECA" Ref="Q?"  Part="1" 
F 0 "Q?" H 6190 4896 50  0000 L CNN
F 1 "2N3904" H 6190 4805 50  0000 L CNN
F 2 "Package_TO_SOT_THT:TO-92_Inline" H 6200 4775 50  0001 L CIN
F 3 "https://www.onsemi.com/pub/Collateral/2N3903-D.PDF" H 6000 4850 50  0001 L CNN
	1    6000 4850
	1    0    0    -1  
$EndComp
Wire Wire Line
	5750 4850 5800 4850
Wire Wire Line
	6100 5050 6100 5150
Wire Wire Line
	6100 5150 6150 5150
Wire Wire Line
	6100 4200 6100 4250
Wire Wire Line
	6100 3850 6100 3900
$Comp
L Device:R R?
U 1 1 607909DD
P 6100 1900
AR Path="/607284F0/607909DD" Ref="R?"  Part="1" 
AR Path="/607284F0/6078C974/607909DD" Ref="R?"  Part="1" 
F 0 "R?" V 6000 1900 50  0000 C CNN
F 1 "180Ω" V 6200 1900 50  0000 C CNN
F 2 "" V 6030 1900 50  0001 C CNN
F 3 "~" H 6100 1900 50  0001 C CNN
	1    6100 1900
	-1   0    0    1   
$EndComp
$Comp
L Device:R R?
U 1 1 607909E3
P 5600 2700
AR Path="/607284F0/607909E3" Ref="R?"  Part="1" 
AR Path="/607284F0/6078C974/607909E3" Ref="R?"  Part="1" 
F 0 "R?" V 5700 2700 50  0000 C CNN
F 1 "47kΩ" V 5500 2700 50  0000 C CNN
F 2 "" V 5530 2700 50  0001 C CNN
F 3 "~" H 5600 2700 50  0001 C CNN
	1    5600 2700
	0    -1   -1   0   
$EndComp
$Comp
L power:GND #PWR?
U 1 1 607909E9
P 6150 3000
AR Path="/607284F0/607909E9" Ref="#PWR?"  Part="1" 
AR Path="/607284F0/6078C974/607909E9" Ref="#PWR?"  Part="1" 
F 0 "#PWR?" H 6150 2750 50  0001 C CNN
F 1 "GND" H 6155 2827 50  0000 C CNN
F 2 "" H 6150 3000 50  0001 C CNN
F 3 "" H 6150 3000 50  0001 C CNN
	1    6150 3000
	1    0    0    -1  
$EndComp
Wire Wire Line
	6100 2400 6100 2500
$Comp
L power:+5V #PWR?
U 1 1 607909F6
P 6100 1700
AR Path="/607284F0/607909F6" Ref="#PWR?"  Part="1" 
AR Path="/607284F0/6078C974/607909F6" Ref="#PWR?"  Part="1" 
F 0 "#PWR?" H 6100 1550 50  0001 C CNN
F 1 "+5V" H 6115 1873 50  0000 C CNN
F 2 "" H 6100 1700 50  0001 C CNN
F 3 "" H 6100 1700 50  0001 C CNN
	1    6100 1700
	1    0    0    -1  
$EndComp
$Comp
L Transistor_BJT:2N3904 Q?
U 1 1 607909FC
P 6000 2700
AR Path="/607284F0/607909FC" Ref="Q?"  Part="1" 
AR Path="/607284F0/6078C974/607909FC" Ref="Q?"  Part="1" 
F 0 "Q?" H 6190 2746 50  0000 L CNN
F 1 "2N3904" H 6190 2655 50  0000 L CNN
F 2 "Package_TO_SOT_THT:TO-92_Inline" H 6200 2625 50  0001 L CIN
F 3 "https://www.onsemi.com/pub/Collateral/2N3903-D.PDF" H 6000 2700 50  0001 L CNN
	1    6000 2700
	1    0    0    -1  
$EndComp
Wire Wire Line
	5750 2700 5800 2700
Wire Wire Line
	6100 2900 6100 3000
Wire Wire Line
	6100 3000 6150 3000
Wire Wire Line
	6100 2050 6100 2100
Wire Wire Line
	6100 1700 6100 1750
$Comp
L Device:R R?
U 1 1 607912B7
P 8450 1950
AR Path="/607284F0/607912B7" Ref="R?"  Part="1" 
AR Path="/607284F0/6078C974/607912B7" Ref="R?"  Part="1" 
F 0 "R?" V 8350 1950 50  0000 C CNN
F 1 "180Ω" V 8550 1950 50  0000 C CNN
F 2 "" V 8380 1950 50  0001 C CNN
F 3 "~" H 8450 1950 50  0001 C CNN
	1    8450 1950
	-1   0    0    1   
$EndComp
$Comp
L Device:R R?
U 1 1 607912BD
P 7950 2750
AR Path="/607284F0/607912BD" Ref="R?"  Part="1" 
AR Path="/607284F0/6078C974/607912BD" Ref="R?"  Part="1" 
F 0 "R?" V 8050 2750 50  0000 C CNN
F 1 "47kΩ" V 7850 2750 50  0000 C CNN
F 2 "" V 7880 2750 50  0001 C CNN
F 3 "~" H 7950 2750 50  0001 C CNN
	1    7950 2750
	0    -1   -1   0   
$EndComp
$Comp
L power:GND #PWR?
U 1 1 607912C3
P 8500 3050
AR Path="/607284F0/607912C3" Ref="#PWR?"  Part="1" 
AR Path="/607284F0/6078C974/607912C3" Ref="#PWR?"  Part="1" 
F 0 "#PWR?" H 8500 2800 50  0001 C CNN
F 1 "GND" H 8505 2877 50  0000 C CNN
F 2 "" H 8500 3050 50  0001 C CNN
F 3 "" H 8500 3050 50  0001 C CNN
	1    8500 3050
	1    0    0    -1  
$EndComp
Wire Wire Line
	8450 2450 8450 2550
$Comp
L power:+5V #PWR?
U 1 1 607912D0
P 8450 1750
AR Path="/607284F0/607912D0" Ref="#PWR?"  Part="1" 
AR Path="/607284F0/6078C974/607912D0" Ref="#PWR?"  Part="1" 
F 0 "#PWR?" H 8450 1600 50  0001 C CNN
F 1 "+5V" H 8465 1923 50  0000 C CNN
F 2 "" H 8450 1750 50  0001 C CNN
F 3 "" H 8450 1750 50  0001 C CNN
	1    8450 1750
	1    0    0    -1  
$EndComp
$Comp
L Transistor_BJT:2N3904 Q?
U 1 1 607912D6
P 8350 2750
AR Path="/607284F0/607912D6" Ref="Q?"  Part="1" 
AR Path="/607284F0/6078C974/607912D6" Ref="Q?"  Part="1" 
F 0 "Q?" H 8540 2796 50  0000 L CNN
F 1 "2N3904" H 8540 2705 50  0000 L CNN
F 2 "Package_TO_SOT_THT:TO-92_Inline" H 8550 2675 50  0001 L CIN
F 3 "https://www.onsemi.com/pub/Collateral/2N3903-D.PDF" H 8350 2750 50  0001 L CNN
	1    8350 2750
	1    0    0    -1  
$EndComp
Wire Wire Line
	8100 2750 8150 2750
Wire Wire Line
	8450 2950 8450 3050
Wire Wire Line
	8450 3050 8500 3050
Wire Wire Line
	8450 2100 8450 2150
Wire Wire Line
	8450 1750 8450 1800
$Comp
L Device:R R?
U 1 1 60791C5D
P 8500 4050
AR Path="/607284F0/60791C5D" Ref="R?"  Part="1" 
AR Path="/607284F0/6078C974/60791C5D" Ref="R?"  Part="1" 
F 0 "R?" V 8400 4050 50  0000 C CNN
F 1 "180Ω" V 8600 4050 50  0000 C CNN
F 2 "" V 8430 4050 50  0001 C CNN
F 3 "~" H 8500 4050 50  0001 C CNN
	1    8500 4050
	-1   0    0    1   
$EndComp
$Comp
L Device:R R?
U 1 1 60791C63
P 8000 4850
AR Path="/607284F0/60791C63" Ref="R?"  Part="1" 
AR Path="/607284F0/6078C974/60791C63" Ref="R?"  Part="1" 
F 0 "R?" V 8100 4850 50  0000 C CNN
F 1 "47kΩ" V 7900 4850 50  0000 C CNN
F 2 "" V 7930 4850 50  0001 C CNN
F 3 "~" H 8000 4850 50  0001 C CNN
	1    8000 4850
	0    -1   -1   0   
$EndComp
$Comp
L power:GND #PWR?
U 1 1 60791C69
P 8550 5150
AR Path="/607284F0/60791C69" Ref="#PWR?"  Part="1" 
AR Path="/607284F0/6078C974/60791C69" Ref="#PWR?"  Part="1" 
F 0 "#PWR?" H 8550 4900 50  0001 C CNN
F 1 "GND" H 8555 4977 50  0000 C CNN
F 2 "" H 8550 5150 50  0001 C CNN
F 3 "" H 8550 5150 50  0001 C CNN
	1    8550 5150
	1    0    0    -1  
$EndComp
Wire Wire Line
	8500 4550 8500 4650
$Comp
L power:+5V #PWR?
U 1 1 60791C76
P 8500 3850
AR Path="/607284F0/60791C76" Ref="#PWR?"  Part="1" 
AR Path="/607284F0/6078C974/60791C76" Ref="#PWR?"  Part="1" 
F 0 "#PWR?" H 8500 3700 50  0001 C CNN
F 1 "+5V" H 8515 4023 50  0000 C CNN
F 2 "" H 8500 3850 50  0001 C CNN
F 3 "" H 8500 3850 50  0001 C CNN
	1    8500 3850
	1    0    0    -1  
$EndComp
$Comp
L Transistor_BJT:2N3904 Q?
U 1 1 60791C7C
P 8400 4850
AR Path="/607284F0/60791C7C" Ref="Q?"  Part="1" 
AR Path="/607284F0/6078C974/60791C7C" Ref="Q?"  Part="1" 
F 0 "Q?" H 8590 4896 50  0000 L CNN
F 1 "2N3904" H 8590 4805 50  0000 L CNN
F 2 "Package_TO_SOT_THT:TO-92_Inline" H 8600 4775 50  0001 L CIN
F 3 "https://www.onsemi.com/pub/Collateral/2N3903-D.PDF" H 8400 4850 50  0001 L CNN
	1    8400 4850
	1    0    0    -1  
$EndComp
Wire Wire Line
	8150 4850 8200 4850
Wire Wire Line
	8500 5050 8500 5150
Wire Wire Line
	8500 5150 8550 5150
Wire Wire Line
	8500 4200 8500 4250
Wire Wire Line
	8500 3850 8500 3900
Text HLabel 7600 2750 0    50   Input ~ 0
thrust_LEDr
Text HLabel 2500 4800 0    50   Input ~ 0
thrust_LEDl
Text HLabel 7700 4850 0    50   Input ~ 0
res2_LED
Text HLabel 5300 4850 0    50   Input ~ 0
res1_LED
Text HLabel 2500 2700 0    50   Input ~ 0
purge_LEDr
Text HLabel 5300 2700 0    50   Input ~ 0
purge_LEDl
Wire Wire Line
	2500 2700 2600 2700
Wire Wire Line
	2650 4800 2500 4800
Wire Wire Line
	5300 4850 5450 4850
Wire Wire Line
	5450 2700 5300 2700
Wire Wire Line
	7600 2750 7800 2750
Wire Wire Line
	7700 4850 7850 4850
$Comp
L Connector_Generic:Conn_02x06_Top_Bottom J?
U 1 1 607B313B
P 4350 6350
AR Path="/607284F0/607B313B" Ref="J?"  Part="1" 
AR Path="/607284F0/6078C974/607B313B" Ref="J?"  Part="1" 
F 0 "J?" H 4400 5950 50  0000 C CNN
F 1 "Programmable LEDs" H 4300 5850 50  0000 C CNN
F 2 "" H 4350 6350 50  0001 C CNN
F 3 "~" H 4350 6350 50  0001 C CNN
	1    4350 6350
	1    0    0    -1  
$EndComp
Text Label 4750 6150 0    50   ~ 0
purge_LEDr+
Text Label 4750 6250 0    50   ~ 0
purge_LEDr-
Text Label 4050 6150 2    50   ~ 0
purge_LEDl+
Text Label 4050 6250 2    50   ~ 0
purge_LEDl-
Text Label 4750 6350 0    50   ~ 0
thrust_LEDr+
Text Label 4750 6450 0    50   ~ 0
thrust_LEDr-
Text Label 4050 6350 2    50   ~ 0
thrust_LEDl+
Text Label 4050 6450 2    50   ~ 0
thrust_LEDl-
Text Label 4750 6550 0    50   ~ 0
res1_LED+
Text Label 4750 6650 0    50   ~ 0
res1_LED-
Text Label 4050 6550 2    50   ~ 0
res2_LED+
Text Label 4050 6650 2    50   ~ 0
res2_LED-
Wire Wire Line
	4050 6150 4150 6150
Wire Wire Line
	4050 6250 4150 6250
Wire Wire Line
	4150 6350 4050 6350
Wire Wire Line
	4050 6450 4150 6450
Wire Wire Line
	4150 6550 4050 6550
Wire Wire Line
	4150 6650 4050 6650
Wire Wire Line
	4650 6150 4750 6150
Wire Wire Line
	4650 6250 4750 6250
Wire Wire Line
	4750 6350 4650 6350
Wire Wire Line
	4650 6450 4750 6450
Wire Wire Line
	4650 6550 4750 6550
Wire Wire Line
	4650 6650 4750 6650
Text Label 3350 2100 0    50   ~ 0
purge_LEDr+
Text Label 3350 2400 0    50   ~ 0
purge_LEDr-
Text Label 6200 2100 0    50   ~ 0
purge_LEDl+
Text Label 6200 2400 0    50   ~ 0
purge_LEDl-
Text Label 8600 2150 0    50   ~ 0
thrust_LEDr+
Text Label 8600 2450 0    50   ~ 0
thrust_LEDr-
Text Label 3400 4200 0    50   ~ 0
thrust_LEDl+
Text Label 3400 4500 0    50   ~ 0
thrust_LEDl-
Text Label 6250 4250 0    50   ~ 0
res1_LED+
Text Label 6250 4550 0    50   ~ 0
res1_LED-
Text Label 8650 4250 0    50   ~ 0
res2_LED+
Text Label 8650 4550 0    50   ~ 0
res2_LED-
Wire Wire Line
	3250 2100 3350 2100
Wire Wire Line
	3350 2400 3250 2400
Wire Wire Line
	6100 2100 6200 2100
Wire Wire Line
	6200 2400 6100 2400
Wire Wire Line
	8450 2150 8600 2150
Wire Wire Line
	8450 2450 8600 2450
Wire Wire Line
	8500 4250 8650 4250
Wire Wire Line
	8650 4550 8500 4550
Wire Wire Line
	6100 4250 6250 4250
Wire Wire Line
	6250 4550 6100 4550
Wire Wire Line
	3300 4200 3400 4200
Wire Wire Line
	3400 4500 3300 4500
$EndSCHEMATC
