EESchema Schematic File Version 4
EELAYER 30 0
EELAYER END
$Descr A4 11693 8268
encoding utf-8
Sheet 2 4
Title ""
Date ""
Rev ""
Comp ""
Comment1 ""
Comment2 ""
Comment3 ""
Comment4 ""
$EndDescr
$Comp
L power:GND #PWR?
U 1 1 60C8057B
P 2175 6225
AR Path="/607385D5/60C8057B" Ref="#PWR?"  Part="1" 
AR Path="/60723812/60C8057B" Ref="#PWR04"  Part="1" 
AR Path="/6102AF87/60C8057B" Ref="#PWR?"  Part="1" 
F 0 "#PWR04" H 2175 5975 50  0001 C CNN
F 1 "GND" H 2180 6052 50  0000 C CNN
F 2 "" H 2175 6225 50  0001 C CNN
F 3 "" H 2175 6225 50  0001 C CNN
	1    2175 6225
	1    0    0    -1  
$EndComp
Wire Wire Line
	2175 5950 2175 6225
Wire Wire Line
	2175 5950 2300 5950
$Comp
L power:PWR_FLAG #FLG?
U 1 1 60EED2A3
P 2300 5950
AR Path="/60DD945E/60EED2A3" Ref="#FLG?"  Part="1" 
AR Path="/60723812/60EED2A3" Ref="#FLG01"  Part="1" 
AR Path="/6102AF87/60EED2A3" Ref="#FLG?"  Part="1" 
F 0 "#FLG01" H 2300 6025 50  0001 C CNN
F 1 "PWR_FLAG" H 2200 6100 50  0000 C CNN
F 2 "" H 2300 5950 50  0001 C CNN
F 3 "~" H 2300 5950 50  0001 C CNN
	1    2300 5950
	-1   0    0    1   
$EndComp
$Comp
L Device:C C8
U 1 1 60D874F4
P 6975 2575
AR Path="/60723812/60D874F4" Ref="C8"  Part="1" 
AR Path="/6102AF87/60D874F4" Ref="C?"  Part="1" 
F 0 "C8" H 6850 2650 50  0000 L CNN
F 1 "22u" H 6775 2500 50  0000 L CNN
F 2 "Capacitor_SMD:C_0603_1608Metric" H 7013 2425 50  0001 C CNN
F 3 "~" H 6975 2575 50  0001 C CNN
F 4 "Samsung Electro-Mechanics" H 6975 2575 50  0001 C CNN "Mfr. "
F 5 "CL10A226MP8NRNC" H 6975 2575 50  0001 C CNN "Mfr. No. "
	1    6975 2575
	1    0    0    -1  
$EndComp
$Comp
L Device:C C10
U 1 1 60D886BA
P 7300 2575
AR Path="/60723812/60D886BA" Ref="C10"  Part="1" 
AR Path="/6102AF87/60D886BA" Ref="C?"  Part="1" 
F 0 "C10" H 7150 2650 50  0000 L CNN
F 1 "22u" H 7100 2500 50  0000 L CNN
F 2 "Capacitor_SMD:C_0603_1608Metric" H 7338 2425 50  0001 C CNN
F 3 "~" H 7300 2575 50  0001 C CNN
F 4 "Samsung Electro-Mechanics" H 7300 2575 50  0001 C CNN "Mfr. "
F 5 "CL10A226MP8NRNC" H 7300 2575 50  0001 C CNN "Mfr. No. "
	1    7300 2575
	1    0    0    -1  
$EndComp
$Comp
L Control_Box:TPS54339EDDAR U2
U 1 1 60EE6720
P 4725 2450
AR Path="/60723812/60EE6720" Ref="U2"  Part="1" 
AR Path="/6102AF87/60EE6720" Ref="U?"  Part="1" 
F 0 "U2" H 4725 2825 50  0000 C CNN
F 1 "TPS54339EDDAR" H 4725 2734 50  0000 C CNN
F 2 "Package_SO:Texas_HSOP-8-1EP_3.9x4.9mm_P1.27mm" H 4525 2450 50  0001 C CNN
F 3 "" H 4525 2450 50  0001 C CNN
F 4 "Texas Instruments" H 4725 2450 50  0001 C CNN "Mfr. "
F 5 "TPS54339EDDAR" H 4725 2450 50  0001 C CNN "Mfr. No. "
	1    4725 2450
	1    0    0    -1  
$EndComp
$Comp
L Device:C C3
U 1 1 60F169BF
P 2950 2475
AR Path="/60723812/60F169BF" Ref="C3"  Part="1" 
AR Path="/6102AF87/60F169BF" Ref="C?"  Part="1" 
F 0 "C3" H 2975 2550 50  0000 L CNN
F 1 "10u" H 2975 2375 50  0000 L CNN
F 2 "Capacitor_SMD:C_0603_1608Metric" H 2988 2325 50  0001 C CNN
F 3 "~" H 2950 2475 50  0001 C CNN
F 4 "Taiyo Yuden" H 2950 2475 50  0001 C CNN "Mfr. "
F 5 "EMK107BBJ106MA-T" H 2950 2475 50  0001 C CNN "Mfr. No. "
	1    2950 2475
	1    0    0    -1  
$EndComp
$Comp
L Device:C C5
U 1 1 60F3DC18
P 3275 2475
AR Path="/60723812/60F3DC18" Ref="C5"  Part="1" 
AR Path="/6102AF87/60F3DC18" Ref="C?"  Part="1" 
F 0 "C5" H 3300 2550 50  0000 L CNN
F 1 "10u" H 3275 2375 50  0000 L CNN
F 2 "Capacitor_SMD:C_0603_1608Metric" H 3313 2325 50  0001 C CNN
F 3 "~" H 3275 2475 50  0001 C CNN
F 4 "Taiyo Yuden" H 3275 2475 50  0001 C CNN "Mfr. "
F 5 "EMK107BBJ106MA-T" H 3275 2475 50  0001 C CNN "Mfr. No. "
	1    3275 2475
	1    0    0    -1  
$EndComp
Wire Wire Line
	2775 2275 2950 2275
Wire Wire Line
	2950 2325 2950 2275
Connection ~ 2950 2275
Wire Wire Line
	3275 2325 3275 2275
Wire Wire Line
	2950 2275 3275 2275
$Comp
L power:GND #PWR?
U 1 1 60F633D8
P 3125 2725
AR Path="/60DD945E/60F633D8" Ref="#PWR?"  Part="1" 
AR Path="/60723812/60F633D8" Ref="#PWR07"  Part="1" 
AR Path="/6102AF87/60F633D8" Ref="#PWR?"  Part="1" 
F 0 "#PWR07" H 3125 2475 50  0001 C CNN
F 1 "GND" H 3130 2552 50  0000 C CNN
F 2 "" H 3125 2725 50  0001 C CNN
F 3 "" H 3125 2725 50  0001 C CNN
	1    3125 2725
	1    0    0    -1  
$EndComp
$Comp
L power:GND #PWR?
U 1 1 60F6383D
P 7150 2825
AR Path="/60DD945E/60F6383D" Ref="#PWR?"  Part="1" 
AR Path="/60723812/60F6383D" Ref="#PWR023"  Part="1" 
AR Path="/6102AF87/60F6383D" Ref="#PWR?"  Part="1" 
F 0 "#PWR023" H 7150 2575 50  0001 C CNN
F 1 "GND" H 7000 2775 50  0000 C CNN
F 2 "" H 7150 2825 50  0001 C CNN
F 3 "" H 7150 2825 50  0001 C CNN
	1    7150 2825
	1    0    0    -1  
$EndComp
$Comp
L power:GND #PWR?
U 1 1 60F6395A
P 4725 3125
AR Path="/60DD945E/60F6395A" Ref="#PWR?"  Part="1" 
AR Path="/60723812/60F6395A" Ref="#PWR010"  Part="1" 
AR Path="/6102AF87/60F6395A" Ref="#PWR?"  Part="1" 
F 0 "#PWR010" H 4725 2875 50  0001 C CNN
F 1 "GND" H 4730 2952 50  0000 C CNN
F 2 "" H 4725 3125 50  0001 C CNN
F 3 "" H 4725 3125 50  0001 C CNN
	1    4725 3125
	1    0    0    -1  
$EndComp
Wire Wire Line
	2950 2625 2950 2675
Wire Wire Line
	2950 2675 3125 2675
Wire Wire Line
	3275 2675 3275 2625
Wire Wire Line
	3125 2725 3125 2675
Connection ~ 3125 2675
Wire Wire Line
	3125 2675 3275 2675
Wire Wire Line
	3275 2275 3925 2275
Wire Wire Line
	3925 2275 3925 2400
Wire Wire Line
	3925 2400 4325 2400
Connection ~ 3275 2275
Text Label 4250 2300 2    50   ~ 0
VBST
Wire Wire Line
	4250 2300 4325 2300
Text Label 6250 1875 2    50   ~ 0
VBST
Wire Wire Line
	5500 2400 5650 2400
Wire Wire Line
	5650 2400 5650 2350
Wire Wire Line
	5200 2400 5125 2400
$Comp
L Device:C C11
U 1 1 60F9269A
P 5400 2850
AR Path="/60723812/60F9269A" Ref="C11"  Part="1" 
AR Path="/6102AF87/60F9269A" Ref="C?"  Part="1" 
F 0 "C11" H 5275 2925 50  0000 L CNN
F 1 "0.47u" H 5150 2750 50  0000 L CNN
F 2 "Capacitor_SMD:C_0603_1608Metric" H 5438 2700 50  0001 C CNN
F 3 "~" H 5400 2850 50  0001 C CNN
F 4 "Wurth Elektronik" H 5400 2850 50  0001 C CNN "Mfr. "
F 5 "885012206075" H 5400 2850 50  0001 C CNN "Mfr. No. "
	1    5400 2850
	1    0    0    -1  
$EndComp
Wire Wire Line
	4725 3075 4325 3075
Wire Wire Line
	4325 3075 4325 2600
Connection ~ 4725 3075
Wire Wire Line
	4725 2900 4725 3075
Wire Wire Line
	4725 3125 4725 3075
Wire Wire Line
	5400 2700 5400 2500
Text Label 4225 2500 2    50   ~ 0
SW
Wire Wire Line
	4225 2500 4325 2500
Text Label 6250 2350 2    50   ~ 0
SW
$Comp
L Device:C C15
U 1 1 60FFA4A8
P 6475 2075
AR Path="/60723812/60FFA4A8" Ref="C15"  Part="1" 
AR Path="/6102AF87/60FFA4A8" Ref="C?"  Part="1" 
F 0 "C15" H 6325 2150 50  0000 L CNN
F 1 "0.1u" H 6275 2000 50  0000 L CNN
F 2 "Capacitor_SMD:C_0603_1608Metric" H 6513 1925 50  0001 C CNN
F 3 "~" H 6475 2075 50  0001 C CNN
F 4 "KEMET" H 6475 2075 50  0001 C CNN "Mfr. "
F 5 "C0603C104M4RAC" H 6475 2075 50  0001 C CNN "Mfr. No. "
	1    6475 2075
	1    0    0    -1  
$EndComp
Wire Wire Line
	6250 2350 6475 2350
Wire Wire Line
	6250 1875 6475 1875
Wire Wire Line
	6475 1875 6475 1925
Wire Wire Line
	6475 2225 6475 2350
$Comp
L Device:L L2
U 1 1 61010AE8
P 6725 2350
AR Path="/60723812/61010AE8" Ref="L2"  Part="1" 
AR Path="/6102AF87/61010AE8" Ref="L?"  Part="1" 
F 0 "L2" V 6825 2275 50  0000 C CNN
F 1 "4.7u" V 6675 2350 50  0000 C CNN
F 2 "Control_Box:SPM7054VT-4R7M-D" H 6725 2350 50  0001 C CNN
F 3 "~" H 6725 2350 50  0001 C CNN
F 4 "TDK" H 6725 2350 50  0001 C CNN "Mfr. "
F 5 "SPM7054VT-4R7M-D" H 6725 2350 50  0001 C CNN "Mfr. No. "
	1    6725 2350
	0    -1   -1   0   
$EndComp
Wire Wire Line
	6475 2350 6575 2350
Connection ~ 6475 2350
Text Label 5275 2300 0    50   ~ 0
SS
Wire Wire Line
	5275 2300 5125 2300
Text Label 3925 2750 2    50   ~ 0
SS
$Comp
L Device:C C6
U 1 1 61028835
P 4150 2900
AR Path="/60723812/61028835" Ref="C6"  Part="1" 
AR Path="/6102AF87/61028835" Ref="C?"  Part="1" 
F 0 "C6" H 4025 2975 50  0000 L CNN
F 1 "8.2n" H 3925 2825 50  0000 L CNN
F 2 "Capacitor_SMD:C_0603_1608Metric" H 4188 2750 50  0001 C CNN
F 3 "~" H 4150 2900 50  0001 C CNN
F 4 "YAGEO" H 4150 2900 50  0001 C CNN "Mfr. "
F 5 "CC0603KPX7R9BB822" H 4150 2900 50  0001 C CNN "Mfr. No. "
	1    4150 2900
	1    0    0    -1  
$EndComp
Wire Wire Line
	4150 3050 4150 3075
Wire Wire Line
	4150 3075 4325 3075
Connection ~ 4325 3075
Wire Wire Line
	3925 2750 4150 2750
$Comp
L power:+5V #PWR025
U 1 1 61038263
P 9350 2300
AR Path="/60723812/61038263" Ref="#PWR025"  Part="1" 
AR Path="/6102AF87/61038263" Ref="#PWR?"  Part="1" 
F 0 "#PWR025" H 9350 2150 50  0001 C CNN
F 1 "+5V" H 9425 2400 50  0000 C CNN
F 2 "" H 9350 2300 50  0001 C CNN
F 3 "" H 9350 2300 50  0001 C CNN
	1    9350 2300
	1    0    0    -1  
$EndComp
Text Label 5200 2600 0    50   ~ 0
VFB
Wire Wire Line
	5400 3000 5400 3075
Wire Wire Line
	4725 3075 5400 3075
Wire Wire Line
	5125 2500 5400 2500
Wire Wire Line
	5200 2600 5125 2600
Wire Wire Line
	6875 2350 6975 2350
Wire Wire Line
	6975 2425 6975 2350
Connection ~ 6975 2350
Wire Wire Line
	6975 2350 7300 2350
Wire Wire Line
	7300 2425 7300 2350
Connection ~ 7300 2350
Wire Wire Line
	6975 2725 6975 2775
Wire Wire Line
	7300 2775 7300 2725
Wire Wire Line
	6975 2775 7150 2775
Wire Wire Line
	7150 2825 7150 2775
Connection ~ 7150 2775
Wire Wire Line
	7150 2775 7300 2775
Text Label 7550 2775 2    50   ~ 0
VFB
Wire Wire Line
	8000 2775 8150 2775
Wire Wire Line
	7550 2775 7650 2775
Wire Wire Line
	7650 2825 7650 2775
Connection ~ 7650 2775
Wire Wire Line
	7650 2775 7700 2775
$Comp
L power:GND #PWR?
U 1 1 611282CD
P 7650 3175
AR Path="/60DD945E/611282CD" Ref="#PWR?"  Part="1" 
AR Path="/60723812/611282CD" Ref="#PWR024"  Part="1" 
AR Path="/6102AF87/611282CD" Ref="#PWR?"  Part="1" 
F 0 "#PWR024" H 7650 2925 50  0001 C CNN
F 1 "GND" H 7500 3125 50  0000 C CNN
F 2 "" H 7650 3175 50  0001 C CNN
F 3 "" H 7650 3175 50  0001 C CNN
	1    7650 3175
	1    0    0    -1  
$EndComp
Wire Wire Line
	7650 3125 7650 3175
$Comp
L Device:C C12
U 1 1 6115F829
P 7025 4400
AR Path="/60723812/6115F829" Ref="C12"  Part="1" 
AR Path="/6102AF87/6115F829" Ref="C?"  Part="1" 
F 0 "C12" H 6875 4475 50  0000 L CNN
F 1 "22u" H 6825 4325 50  0000 L CNN
F 2 "Capacitor_SMD:C_0603_1608Metric" H 7063 4250 50  0001 C CNN
F 3 "~" H 7025 4400 50  0001 C CNN
F 4 "Samsung Electro-Mechanics" H 7025 4400 50  0001 C CNN "Mfr. "
F 5 "CL10A226MP8NRNC" H 7025 4400 50  0001 C CNN "Mfr. No. "
	1    7025 4400
	1    0    0    -1  
$EndComp
$Comp
L Device:C C14
U 1 1 6115F82F
P 7350 4400
AR Path="/60723812/6115F82F" Ref="C14"  Part="1" 
AR Path="/6102AF87/6115F82F" Ref="C?"  Part="1" 
F 0 "C14" H 7200 4475 50  0000 L CNN
F 1 "22u" H 7150 4325 50  0000 L CNN
F 2 "Capacitor_SMD:C_0603_1608Metric" H 7388 4250 50  0001 C CNN
F 3 "~" H 7350 4400 50  0001 C CNN
F 4 "Samsung Electro-Mechanics" H 7350 4400 50  0001 C CNN "Mfr. "
F 5 "CL10A226MP8NRNC" H 7350 4400 50  0001 C CNN "Mfr. No. "
	1    7350 4400
	1    0    0    -1  
$EndComp
$Comp
L Control_Box:TPS54339EDDAR U1
U 1 1 6115F835
P 4775 4275
AR Path="/60723812/6115F835" Ref="U1"  Part="1" 
AR Path="/6102AF87/6115F835" Ref="U?"  Part="1" 
F 0 "U1" H 4775 4650 50  0000 C CNN
F 1 "TPS54339EDDAR" H 4775 4559 50  0000 C CNN
F 2 "Package_SO:Texas_HSOP-8-1EP_3.9x4.9mm_P1.27mm" H 4575 4275 50  0001 C CNN
F 3 "" H 4575 4275 50  0001 C CNN
F 4 "Texas Instruments" H 4775 4275 50  0001 C CNN "Mfr. "
F 5 "TPS54339EDDAR" H 4775 4275 50  0001 C CNN "Mfr. No. "
	1    4775 4275
	1    0    0    -1  
$EndComp
$Comp
L Device:C C1
U 1 1 6115F83B
P 3000 4300
AR Path="/60723812/6115F83B" Ref="C1"  Part="1" 
AR Path="/6102AF87/6115F83B" Ref="C?"  Part="1" 
F 0 "C1" H 3025 4375 50  0000 L CNN
F 1 "10u" H 3025 4200 50  0000 L CNN
F 2 "Capacitor_SMD:C_0603_1608Metric" H 3038 4150 50  0001 C CNN
F 3 "~" H 3000 4300 50  0001 C CNN
F 4 "Taiyo Yuden" H 3000 4300 50  0001 C CNN "Mfr. "
F 5 "EMK107BBJ106MA-T" H 3000 4300 50  0001 C CNN "Mfr. No. "
	1    3000 4300
	1    0    0    -1  
$EndComp
$Comp
L Device:C C2
U 1 1 6115F841
P 3325 4300
AR Path="/60723812/6115F841" Ref="C2"  Part="1" 
AR Path="/6102AF87/6115F841" Ref="C?"  Part="1" 
F 0 "C2" H 3350 4375 50  0000 L CNN
F 1 "10u" H 3325 4200 50  0000 L CNN
F 2 "Capacitor_SMD:C_0603_1608Metric" H 3363 4150 50  0001 C CNN
F 3 "~" H 3325 4300 50  0001 C CNN
F 4 "Taiyo Yuden" H 3325 4300 50  0001 C CNN "Mfr. "
F 5 "EMK107BBJ106MA-T" H 3325 4300 50  0001 C CNN "Mfr. No. "
	1    3325 4300
	1    0    0    -1  
$EndComp
Wire Wire Line
	2825 4100 3000 4100
Wire Wire Line
	3000 4150 3000 4100
Connection ~ 3000 4100
Wire Wire Line
	3325 4150 3325 4100
Wire Wire Line
	3000 4100 3325 4100
$Comp
L power:GND #PWR?
U 1 1 6115F84C
P 3175 4550
AR Path="/60DD945E/6115F84C" Ref="#PWR?"  Part="1" 
AR Path="/60723812/6115F84C" Ref="#PWR06"  Part="1" 
AR Path="/6102AF87/6115F84C" Ref="#PWR?"  Part="1" 
F 0 "#PWR06" H 3175 4300 50  0001 C CNN
F 1 "GND" H 3180 4377 50  0000 C CNN
F 2 "" H 3175 4550 50  0001 C CNN
F 3 "" H 3175 4550 50  0001 C CNN
	1    3175 4550
	1    0    0    -1  
$EndComp
$Comp
L power:GND #PWR?
U 1 1 6115F852
P 7200 4650
AR Path="/60DD945E/6115F852" Ref="#PWR?"  Part="1" 
AR Path="/60723812/6115F852" Ref="#PWR020"  Part="1" 
AR Path="/6102AF87/6115F852" Ref="#PWR?"  Part="1" 
F 0 "#PWR020" H 7200 4400 50  0001 C CNN
F 1 "GND" H 7050 4600 50  0000 C CNN
F 2 "" H 7200 4650 50  0001 C CNN
F 3 "" H 7200 4650 50  0001 C CNN
	1    7200 4650
	1    0    0    -1  
$EndComp
$Comp
L power:GND #PWR?
U 1 1 6115F858
P 4775 4950
AR Path="/60DD945E/6115F858" Ref="#PWR?"  Part="1" 
AR Path="/60723812/6115F858" Ref="#PWR08"  Part="1" 
AR Path="/6102AF87/6115F858" Ref="#PWR?"  Part="1" 
F 0 "#PWR08" H 4775 4700 50  0001 C CNN
F 1 "GND" H 4780 4777 50  0000 C CNN
F 2 "" H 4775 4950 50  0001 C CNN
F 3 "" H 4775 4950 50  0001 C CNN
	1    4775 4950
	1    0    0    -1  
$EndComp
Wire Wire Line
	3000 4450 3000 4500
Wire Wire Line
	3000 4500 3175 4500
Wire Wire Line
	3325 4500 3325 4450
Wire Wire Line
	3175 4550 3175 4500
Connection ~ 3175 4500
Wire Wire Line
	3175 4500 3325 4500
Text Label 4300 4125 2    50   ~ 0
VBST_3.3
Wire Wire Line
	4300 4125 4375 4125
Text Label 6300 3700 2    50   ~ 0
VBST_3.3
$Comp
L Device:R R1
U 1 1 6115F871
P 5400 4225
AR Path="/60723812/6115F871" Ref="R1"  Part="1" 
AR Path="/6102AF87/6115F871" Ref="R?"  Part="1" 
F 0 "R1" V 5350 4350 50  0000 L CNN
F 1 "10k" V 5400 4150 47  0000 L CNN
F 2 "Resistor_SMD:R_0603_1608Metric" V 5330 4225 50  0001 C CNN
F 3 "~" H 5400 4225 50  0001 C CNN
F 4 "ROHM Semiconductor" H 5400 4225 50  0001 C CNN "Mfr. "
F 5 "ESR03EZPF1002" H 5400 4225 50  0001 C CNN "Mfr. No. "
	1    5400 4225
	0    1    1    0   
$EndComp
Wire Wire Line
	5550 4225 5700 4225
Wire Wire Line
	5700 4225 5700 4175
Wire Wire Line
	5250 4225 5175 4225
$Comp
L Device:C C7
U 1 1 6115F87A
P 5450 4675
AR Path="/60723812/6115F87A" Ref="C7"  Part="1" 
AR Path="/6102AF87/6115F87A" Ref="C?"  Part="1" 
F 0 "C7" H 5325 4750 50  0000 L CNN
F 1 "0.47u" H 5200 4575 50  0000 L CNN
F 2 "Capacitor_SMD:C_0603_1608Metric" H 5488 4525 50  0001 C CNN
F 3 "~" H 5450 4675 50  0001 C CNN
F 4 "Wurth Elektronik" H 5450 4675 50  0001 C CNN "Mfr. "
F 5 "885012206075" H 5450 4675 50  0001 C CNN "Mfr. No. "
	1    5450 4675
	1    0    0    -1  
$EndComp
Wire Wire Line
	4775 4900 4375 4900
Wire Wire Line
	4375 4900 4375 4425
Connection ~ 4775 4900
Wire Wire Line
	4775 4725 4775 4900
Wire Wire Line
	4775 4950 4775 4900
Text Label 4275 4325 2    50   ~ 0
SW_3.3
Wire Wire Line
	4275 4325 4375 4325
Text Label 6300 4175 2    50   ~ 0
SW_3.3
$Comp
L Device:C C9
U 1 1 6115F889
P 6525 3900
AR Path="/60723812/6115F889" Ref="C9"  Part="1" 
AR Path="/6102AF87/6115F889" Ref="C?"  Part="1" 
F 0 "C9" H 6400 3975 50  0000 L CNN
F 1 "0.1u" H 6325 3825 50  0000 L CNN
F 2 "Capacitor_SMD:C_0603_1608Metric" H 6563 3750 50  0001 C CNN
F 3 "~" H 6525 3900 50  0001 C CNN
F 4 "KEMET" H 6525 3900 50  0001 C CNN "Mfr. "
F 5 "C0603C104M4RAC" H 6525 3900 50  0001 C CNN "Mfr. No. "
	1    6525 3900
	1    0    0    -1  
$EndComp
Wire Wire Line
	6300 4175 6525 4175
Wire Wire Line
	6300 3700 6525 3700
Wire Wire Line
	6525 3700 6525 3750
Wire Wire Line
	6525 4050 6525 4175
$Comp
L Device:L L1
U 1 1 6115F893
P 6775 4175
AR Path="/60723812/6115F893" Ref="L1"  Part="1" 
AR Path="/6102AF87/6115F893" Ref="L?"  Part="1" 
F 0 "L1" V 6875 4100 50  0000 C CNN
F 1 "3.3u" V 6725 4175 50  0000 C CNN
F 2 "Inductor_SMD:L_Vishay_IHLP-2020" H 6775 4175 50  0001 C CNN
F 3 "~" H 6775 4175 50  0001 C CNN
F 4 "Vishay / Dale" H 6775 4175 50  0001 C CNN "Mfr. "
F 5 "IHLP2020CZER3R3M01" H 6775 4175 50  0001 C CNN "Mfr. No. "
	1    6775 4175
	0    -1   -1   0   
$EndComp
Wire Wire Line
	6525 4175 6625 4175
Connection ~ 6525 4175
Text Label 5325 4125 0    50   ~ 0
SS_3.3
Wire Wire Line
	5325 4125 5175 4125
Text Label 3975 4575 2    50   ~ 0
SS_3.3
$Comp
L Device:C C4
U 1 1 6115F89E
P 4200 4725
AR Path="/60723812/6115F89E" Ref="C4"  Part="1" 
AR Path="/6102AF87/6115F89E" Ref="C?"  Part="1" 
F 0 "C4" H 4075 4800 50  0000 L CNN
F 1 "8.2n" H 3975 4650 50  0000 L CNN
F 2 "Capacitor_SMD:C_0603_1608Metric" H 4238 4575 50  0001 C CNN
F 3 "~" H 4200 4725 50  0001 C CNN
F 4 "YAGEO" H 4200 4725 50  0001 C CNN "Mfr. "
F 5 "CC0603KPX7R9BB822" H 4200 4725 50  0001 C CNN "Mfr. No. "
	1    4200 4725
	1    0    0    -1  
$EndComp
Wire Wire Line
	4200 4875 4200 4900
Wire Wire Line
	4200 4900 4375 4900
Connection ~ 4375 4900
Wire Wire Line
	3975 4575 4200 4575
Text Label 5250 4425 0    50   ~ 0
VFB_3.3
Wire Wire Line
	5450 4825 5450 4900
Wire Wire Line
	4775 4900 5450 4900
Wire Wire Line
	5250 4425 5175 4425
Wire Wire Line
	6925 4175 7025 4175
Wire Wire Line
	7025 4250 7025 4175
Connection ~ 7025 4175
Wire Wire Line
	7025 4175 7350 4175
Wire Wire Line
	7350 4250 7350 4175
Wire Wire Line
	7025 4550 7025 4600
Wire Wire Line
	7350 4600 7350 4550
Wire Wire Line
	7025 4600 7200 4600
Wire Wire Line
	7200 4650 7200 4600
Connection ~ 7200 4600
Wire Wire Line
	7200 4600 7350 4600
Text Label 7825 4600 2    50   ~ 0
VFB_3.3
$Comp
L Device:R R7
U 1 1 6115F8C0
P 8125 4600
AR Path="/60723812/6115F8C0" Ref="R7"  Part="1" 
AR Path="/6102AF87/6115F8C0" Ref="R?"  Part="1" 
F 0 "R7" V 8075 4725 50  0000 L CNN
F 1 "73.2k" V 8125 4500 47  0000 L CNN
F 2 "Resistor_SMD:R_0603_1608Metric" V 8055 4600 50  0001 C CNN
F 3 "~" H 8125 4600 50  0001 C CNN
F 4 "Panasonic" H 8125 4600 50  0001 C CNN "Mfr. "
F 5 "ERJ-UP3F7322V" H 8125 4600 50  0001 C CNN "Mfr. No. "
	1    8125 4600
	0    1    1    0   
$EndComp
Wire Wire Line
	8275 4600 8425 4600
$Comp
L Device:R R6
U 1 1 6115F8C7
P 7925 4800
AR Path="/60723812/6115F8C7" Ref="R6"  Part="1" 
AR Path="/6102AF87/6115F8C7" Ref="R?"  Part="1" 
F 0 "R6" H 7975 4875 50  0000 L CNN
F 1 "22.1k" V 7925 4700 47  0000 L CNN
F 2 "Resistor_SMD:R_0603_1608Metric" V 7855 4800 50  0001 C CNN
F 3 "~" H 7925 4800 50  0001 C CNN
F 4 "Panasonic" H 7925 4800 50  0001 C CNN "Mfr. "
F 5 "ERJ-PA3F2212V" H 7925 4800 50  0001 C CNN "Mfr. No. "
	1    7925 4800
	1    0    0    -1  
$EndComp
Wire Wire Line
	7825 4600 7925 4600
Wire Wire Line
	7925 4650 7925 4600
Connection ~ 7925 4600
Wire Wire Line
	7925 4600 7975 4600
$Comp
L power:GND #PWR?
U 1 1 6115F8D1
P 7925 5000
AR Path="/60DD945E/6115F8D1" Ref="#PWR?"  Part="1" 
AR Path="/60723812/6115F8D1" Ref="#PWR021"  Part="1" 
AR Path="/6102AF87/6115F8D1" Ref="#PWR?"  Part="1" 
F 0 "#PWR021" H 7925 4750 50  0001 C CNN
F 1 "GND" H 7775 4950 50  0000 C CNN
F 2 "" H 7925 5000 50  0001 C CNN
F 3 "" H 7925 5000 50  0001 C CNN
	1    7925 5000
	1    0    0    -1  
$EndComp
Wire Wire Line
	7925 4950 7925 5000
Wire Wire Line
	8425 4600 8425 4175
Wire Wire Line
	3575 4225 3575 4100
Wire Wire Line
	3575 4100 3325 4100
Connection ~ 3325 4100
Wire Wire Line
	3575 4225 4375 4225
Wire Wire Line
	5625 4325 5625 4525
Wire Wire Line
	5625 4525 5450 4525
Wire Wire Line
	5175 4325 5625 4325
Wire Wire Line
	7350 4175 8425 4175
Connection ~ 7350 4175
$Comp
L power:+3V3 #PWR?
U 1 1 6118D9FC
P 9450 4150
AR Path="/607385D5/6118D9FC" Ref="#PWR?"  Part="1" 
AR Path="/60723812/6118D9FC" Ref="#PWR022"  Part="1" 
AR Path="/6102AF87/6118D9FC" Ref="#PWR?"  Part="1" 
F 0 "#PWR022" H 9450 4000 50  0001 C CNN
F 1 "+3V3" H 9300 4225 50  0000 C CNN
F 2 "" H 9450 4150 50  0001 C CNN
F 3 "" H 9450 4150 50  0001 C CNN
	1    9450 4150
	1    0    0    -1  
$EndComp
$Comp
L power:PWR_FLAG #FLG?
U 1 1 6119B50F
P 9225 2200
AR Path="/60DD945E/6119B50F" Ref="#FLG?"  Part="1" 
AR Path="/60723812/6119B50F" Ref="#FLG0102"  Part="1" 
AR Path="/6102AF87/6119B50F" Ref="#FLG?"  Part="1" 
F 0 "#FLG0102" H 9225 2275 50  0001 C CNN
F 1 "PWR_FLAG" H 9125 2350 50  0000 C CNN
F 2 "" H 9225 2200 50  0001 C CNN
F 3 "~" H 9225 2200 50  0001 C CNN
	1    9225 2200
	1    0    0    -1  
$EndComp
$Comp
L Device:R R2
U 1 1 60F84A15
P 5350 2400
AR Path="/60723812/60F84A15" Ref="R2"  Part="1" 
AR Path="/6102AF87/60F84A15" Ref="R?"  Part="1" 
F 0 "R2" V 5300 2525 50  0000 L CNN
F 1 "10k" V 5350 2325 47  0000 L CNN
F 2 "Resistor_SMD:R_0603_1608Metric" V 5280 2400 50  0001 C CNN
F 3 "~" H 5350 2400 50  0001 C CNN
F 4 "ROHM Semiconductor" H 5350 2400 50  0001 C CNN "Mfr. "
F 5 "ESR03EZPF1002" H 5350 2400 50  0001 C CNN "Mfr. No. "
	1    5350 2400
	0    1    1    0   
$EndComp
$Comp
L Device:R R9
U 1 1 610AAB2D
P 7850 2775
AR Path="/60723812/610AAB2D" Ref="R9"  Part="1" 
AR Path="/6102AF87/610AAB2D" Ref="R?"  Part="1" 
F 0 "R9" V 7800 2900 50  0000 L CNN
F 1 "124k" V 7850 2700 47  0000 L CNN
F 2 "Resistor_SMD:R_0603_1608Metric" V 7780 2775 50  0001 C CNN
F 3 "~" H 7850 2775 50  0001 C CNN
F 4 "Panasonic" H 7850 2775 50  0001 C CNN "Mfr. "
F 5 "ERJ-3EKF1243V" H 7850 2775 50  0001 C CNN "Mfr. No. "
	1    7850 2775
	0    1    1    0   
$EndComp
$Comp
L Device:R R8
U 1 1 6111FBE2
P 7650 2975
AR Path="/60723812/6111FBE2" Ref="R8"  Part="1" 
AR Path="/6102AF87/6111FBE2" Ref="R?"  Part="1" 
F 0 "R8" H 7720 3004 50  0000 L CNN
F 1 "22.1k" V 7650 2875 47  0000 L CNN
F 2 "Resistor_SMD:R_0603_1608Metric" V 7580 2975 50  0001 C CNN
F 3 "~" H 7650 2975 50  0001 C CNN
F 4 "Panasonic" H 7650 2975 50  0001 C CNN "Mfr. "
F 5 "ERJ-PA3F2212V" H 7650 2975 50  0001 C CNN "Mfr. No. "
	1    7650 2975
	1    0    0    -1  
$EndComp
$Comp
L power:+BATT #PWR0101
U 1 1 60EFE144
P 2775 2275
AR Path="/60723812/60EFE144" Ref="#PWR0101"  Part="1" 
AR Path="/6102AF87/60EFE144" Ref="#PWR?"  Part="1" 
F 0 "#PWR0101" H 2775 2125 50  0001 C CNN
F 1 "+BATT" H 2790 2448 50  0000 C CNN
F 2 "" H 2775 2275 50  0001 C CNN
F 3 "" H 2775 2275 50  0001 C CNN
	1    2775 2275
	1    0    0    -1  
$EndComp
$Comp
L power:+BATT #PWR0102
U 1 1 60EFEB2D
P 2825 4100
AR Path="/60723812/60EFEB2D" Ref="#PWR0102"  Part="1" 
AR Path="/6102AF87/60EFEB2D" Ref="#PWR?"  Part="1" 
F 0 "#PWR0102" H 2825 3950 50  0001 C CNN
F 1 "+BATT" H 2840 4273 50  0000 C CNN
F 2 "" H 2825 4100 50  0001 C CNN
F 3 "" H 2825 4100 50  0001 C CNN
	1    2825 4100
	1    0    0    -1  
$EndComp
$Comp
L power:+BATT #PWR0103
U 1 1 60EFF363
P 5700 4175
AR Path="/60723812/60EFF363" Ref="#PWR0103"  Part="1" 
AR Path="/6102AF87/60EFF363" Ref="#PWR?"  Part="1" 
F 0 "#PWR0103" H 5700 4025 50  0001 C CNN
F 1 "+BATT" H 5715 4348 50  0000 C CNN
F 2 "" H 5700 4175 50  0001 C CNN
F 3 "" H 5700 4175 50  0001 C CNN
	1    5700 4175
	1    0    0    -1  
$EndComp
$Comp
L power:+BATT #PWR0104
U 1 1 60EFF675
P 5650 2350
AR Path="/60723812/60EFF675" Ref="#PWR0104"  Part="1" 
AR Path="/6102AF87/60EFF675" Ref="#PWR?"  Part="1" 
F 0 "#PWR0104" H 5650 2200 50  0001 C CNN
F 1 "+BATT" H 5665 2523 50  0000 C CNN
F 2 "" H 5650 2350 50  0001 C CNN
F 3 "" H 5650 2350 50  0001 C CNN
	1    5650 2350
	1    0    0    -1  
$EndComp
Wire Wire Line
	4575 6050 4575 6000
Text Label 2475 5850 2    50   ~ 0
+battery
Wire Wire Line
	2475 5850 2650 5850
$Comp
L power:+3V3 #PWR?
U 1 1 60C80581
P 4575 5825
AR Path="/607385D5/60C80581" Ref="#PWR?"  Part="1" 
AR Path="/60723812/60C80581" Ref="#PWR03"  Part="1" 
AR Path="/6102AF87/60C80581" Ref="#PWR?"  Part="1" 
F 0 "#PWR03" H 4575 5675 50  0001 C CNN
F 1 "+3V3" H 4575 5975 50  0000 C CNN
F 2 "" H 4575 5825 50  0001 C CNN
F 3 "" H 4575 5825 50  0001 C CNN
	1    4575 5825
	1    0    0    -1  
$EndComp
Wire Wire Line
	4575 5825 4575 5900
Text Notes 1800 6050 0    50   ~ 0
battery
Wire Notes Line
	1800 5975 1800 6050
Wire Notes Line
	1800 6050 2075 6050
Wire Notes Line
	2075 6050 2075 5975
Wire Notes Line
	2075 5975 1800 5975
$Comp
L Device:LED D1
U 1 1 61B8BF5C
P 9125 2600
F 0 "D1" V 9164 2482 50  0000 R CNN
F 1 "LED" V 9073 2482 50  0000 R CNN
F 2 "LED_SMD:LED_0603_1608Metric" H 9125 2600 50  0001 C CNN
F 3 "~" H 9125 2600 50  0001 C CNN
	1    9125 2600
	0    -1   -1   0   
$EndComp
$Comp
L Device:R R13
U 1 1 61B8CF2F
P 9125 2975
AR Path="/60723812/61B8CF2F" Ref="R13"  Part="1" 
AR Path="/6102AF87/61B8CF2F" Ref="R?"  Part="1" 
F 0 "R13" H 9195 3004 50  0000 L CNN
F 1 "430" V 9125 2900 47  0000 L CNN
F 2 "Resistor_SMD:R_0603_1608Metric" V 9055 2975 50  0001 C CNN
F 3 "~" H 9125 2975 50  0001 C CNN
F 4 "Panasonic" H 9125 2975 50  0001 C CNN "Mfr. "
F 5 "ERJ-PA3F2212V" H 9125 2975 50  0001 C CNN "Mfr. No. "
	1    9125 2975
	1    0    0    -1  
$EndComp
Wire Wire Line
	9125 2825 9125 2750
$Comp
L power:GND #PWR?
U 1 1 61B92787
P 9125 3175
AR Path="/60DD945E/61B92787" Ref="#PWR?"  Part="1" 
AR Path="/60723812/61B92787" Ref="#PWR02"  Part="1" 
AR Path="/6102AF87/61B92787" Ref="#PWR?"  Part="1" 
F 0 "#PWR02" H 9125 2925 50  0001 C CNN
F 1 "GND" H 8975 3125 50  0000 C CNN
F 2 "" H 9125 3175 50  0001 C CNN
F 3 "" H 9125 3175 50  0001 C CNN
	1    9125 3175
	1    0    0    -1  
$EndComp
Wire Wire Line
	9125 3175 9125 3125
Wire Wire Line
	9125 2450 9125 2350
Connection ~ 9125 2350
Wire Wire Line
	9225 2200 9225 2350
$Comp
L Jumper:SolderJumper_2_Open JP1
U 1 1 61BA40F4
P 8525 2350
F 0 "JP1" H 8525 2450 50  0000 C CNN
F 1 "SolderJumper_2_Open" H 8600 2250 50  0000 C CNN
F 2 "Jumper:SolderJumper-2_P1.3mm_Open_Pad1.0x1.5mm" H 8525 2350 50  0001 C CNN
F 3 "~" H 8525 2350 50  0001 C CNN
	1    8525 2350
	1    0    0    -1  
$EndComp
Wire Wire Line
	8675 2350 9125 2350
Wire Wire Line
	9350 2300 9350 2350
Wire Wire Line
	9125 2350 9225 2350
Wire Wire Line
	8150 2775 8150 2350
Connection ~ 8150 2350
Wire Wire Line
	8150 2350 8375 2350
Wire Wire Line
	8475 4175 8425 4175
Connection ~ 8425 4175
$Comp
L Device:LED D2
U 1 1 61BC1AB3
P 9325 4450
F 0 "D2" V 9364 4332 50  0000 R CNN
F 1 "LED" V 9273 4332 50  0000 R CNN
F 2 "LED_SMD:LED_0603_1608Metric" H 9325 4450 50  0001 C CNN
F 3 "~" H 9325 4450 50  0001 C CNN
	1    9325 4450
	0    -1   -1   0   
$EndComp
$Comp
L Device:R R14
U 1 1 61BC1ABB
P 9325 4825
AR Path="/60723812/61BC1ABB" Ref="R14"  Part="1" 
AR Path="/6102AF87/61BC1ABB" Ref="R?"  Part="1" 
F 0 "R14" H 9395 4854 50  0000 L CNN
F 1 "100" V 9325 4750 47  0000 L CNN
F 2 "Resistor_SMD:R_0603_1608Metric" V 9255 4825 50  0001 C CNN
F 3 "~" H 9325 4825 50  0001 C CNN
F 4 "Panasonic" H 9325 4825 50  0001 C CNN "Mfr. "
F 5 "ERJ-PA3F2212V" H 9325 4825 50  0001 C CNN "Mfr. No. "
	1    9325 4825
	1    0    0    -1  
$EndComp
Wire Wire Line
	9325 4675 9325 4600
$Comp
L power:GND #PWR?
U 1 1 61BC1AC2
P 9325 5025
AR Path="/60DD945E/61BC1AC2" Ref="#PWR?"  Part="1" 
AR Path="/60723812/61BC1AC2" Ref="#PWR05"  Part="1" 
AR Path="/6102AF87/61BC1AC2" Ref="#PWR?"  Part="1" 
F 0 "#PWR05" H 9325 4775 50  0001 C CNN
F 1 "GND" H 9175 4975 50  0000 C CNN
F 2 "" H 9325 5025 50  0001 C CNN
F 3 "" H 9325 5025 50  0001 C CNN
	1    9325 5025
	1    0    0    -1  
$EndComp
Wire Wire Line
	9325 5025 9325 4975
Wire Wire Line
	9450 4175 9450 4150
Wire Wire Line
	9325 4175 9325 4300
Wire Wire Line
	9325 4175 9450 4175
Connection ~ 9325 4175
$Comp
L Jumper:SolderJumper_2_Open JP2
U 1 1 61B75E34
P 8625 4175
F 0 "JP2" H 8625 4050 50  0000 C CNN
F 1 "SolderJumper_2_Open" H 8625 4275 50  0000 C CNN
F 2 "Jumper:SolderJumper-2_P1.3mm_Open_Pad1.0x1.5mm" H 8625 4175 50  0001 C CNN
F 3 "~" H 8625 4175 50  0001 C CNN
	1    8625 4175
	1    0    0    -1  
$EndComp
Wire Wire Line
	8775 4175 9125 4175
Connection ~ 9225 2350
Wire Wire Line
	9225 2350 9350 2350
Wire Wire Line
	7300 2350 8150 2350
$Comp
L power:PWR_FLAG #FLG?
U 1 1 61F956F3
P 9125 3975
AR Path="/60DD945E/61F956F3" Ref="#FLG?"  Part="1" 
AR Path="/60723812/61F956F3" Ref="#FLG0103"  Part="1" 
AR Path="/6102AF87/61F956F3" Ref="#FLG?"  Part="1" 
F 0 "#FLG0103" H 9125 4050 50  0001 C CNN
F 1 "PWR_FLAG" H 9025 4125 50  0000 C CNN
F 2 "" H 9125 3975 50  0001 C CNN
F 3 "~" H 9125 3975 50  0001 C CNN
	1    9125 3975
	1    0    0    -1  
$EndComp
Wire Wire Line
	9125 3975 9125 4175
Connection ~ 9125 4175
Wire Wire Line
	9125 4175 9325 4175
Wire Wire Line
	4475 5900 4575 5900
$Comp
L power:GND #PWR?
U 1 1 60F5CF9C
P 4575 6050
AR Path="/607385D5/60F5CF9C" Ref="#PWR?"  Part="1" 
AR Path="/60723812/60F5CF9C" Ref="#PWR0109"  Part="1" 
AR Path="/6102AF87/60F5CF9C" Ref="#PWR?"  Part="1" 
F 0 "#PWR0109" H 4575 5800 50  0001 C CNN
F 1 "GND" H 4580 5877 50  0000 C CNN
F 2 "" H 4575 6050 50  0001 C CNN
F 3 "" H 4575 6050 50  0001 C CNN
	1    4575 6050
	1    0    0    -1  
$EndComp
Wire Wire Line
	4475 6000 4575 6000
$Comp
L power:PWR_FLAG #FLG?
U 1 1 60C83E77
P 3275 6825
AR Path="/60DD945E/60C83E77" Ref="#FLG?"  Part="1" 
AR Path="/60723812/60C83E77" Ref="#FLG0101"  Part="1" 
AR Path="/6102AF87/60C83E77" Ref="#FLG?"  Part="1" 
F 0 "#FLG0101" H 3275 6900 50  0001 C CNN
F 1 "PWR_FLAG" H 3525 6950 50  0000 C CNN
F 2 "" H 3275 6825 50  0001 C CNN
F 3 "~" H 3275 6825 50  0001 C CNN
	1    3275 6825
	1    0    0    -1  
$EndComp
$Comp
L power:+BATT #PWR0105
U 1 1 60EFFA8F
P 3525 6875
AR Path="/60723812/60EFFA8F" Ref="#PWR0105"  Part="1" 
AR Path="/6102AF87/60EFFA8F" Ref="#PWR?"  Part="1" 
F 0 "#PWR0105" H 3525 6725 50  0001 C CNN
F 1 "+BATT" H 3725 6925 50  0000 C CNN
F 2 "" H 3525 6875 50  0001 C CNN
F 3 "" H 3525 6875 50  0001 C CNN
	1    3525 6875
	1    0    0    -1  
$EndComp
Text Label 2700 6775 0    50   ~ 0
+battery
Wire Wire Line
	2700 6775 2575 6775
Text Notes 2300 6700 2    50   ~ 0
key switch
Wire Notes Line
	2300 6700 2300 6625
Wire Notes Line
	2300 6625 1900 6625
Wire Notes Line
	1900 6700 2300 6700
Wire Notes Line
	1900 6700 1900 6625
Connection ~ 3275 6875
Wire Wire Line
	3275 6825 3275 6875
Wire Wire Line
	3275 6875 3525 6875
$Comp
L power:+5V #PWR012
U 1 1 6202DF07
P 4625 6475
AR Path="/60723812/6202DF07" Ref="#PWR012"  Part="1" 
AR Path="/6102AF87/6202DF07" Ref="#PWR?"  Part="1" 
F 0 "#PWR012" H 4625 6325 50  0001 C CNN
F 1 "+5V" H 4625 6625 50  0000 C CNN
F 2 "" H 4625 6475 50  0001 C CNN
F 3 "" H 4625 6475 50  0001 C CNN
	1    4625 6475
	1    0    0    -1  
$EndComp
Wire Wire Line
	4625 6475 4625 6525
Wire Wire Line
	4500 6525 4625 6525
Wire Wire Line
	4625 6675 4625 6625
$Comp
L power:GND #PWR?
U 1 1 6203C070
P 4625 6675
AR Path="/607385D5/6203C070" Ref="#PWR?"  Part="1" 
AR Path="/60723812/6203C070" Ref="#PWR026"  Part="1" 
AR Path="/6102AF87/6203C070" Ref="#PWR?"  Part="1" 
F 0 "#PWR026" H 4625 6425 50  0001 C CNN
F 1 "GND" H 4630 6502 50  0000 C CNN
F 2 "" H 4625 6675 50  0001 C CNN
F 3 "" H 4625 6675 50  0001 C CNN
	1    4625 6675
	1    0    0    -1  
$EndComp
Wire Wire Line
	4500 6625 4625 6625
Text Notes 4750 6250 0    50   ~ 0
3V3 & 5V\noutputs
Wire Notes Line
	4750 6075 4750 6275
$Comp
L Connector_Generic:Conn_01x02 J6
U 1 1 6205D6AA
P 2375 6875
F 0 "J6" H 2500 6875 50  0000 C CNN
F 1 "JST PH 1X2" H 2675 6800 50  0000 C CNN
F 2 "Connector_JST:JST_PH_S2B-PH-K_1x02_P2.00mm_Horizontal" H 2375 6875 50  0001 C CNN
F 3 "~" H 2375 6875 50  0001 C CNN
	1    2375 6875
	-1   0    0    1   
$EndComp
$Comp
L Connector_Generic:Conn_01x02 J8
U 1 1 6205E147
P 4275 6000
F 0 "J8" H 4275 5725 50  0000 C CNN
F 1 "JST PH 1X2" H 4275 5800 50  0000 C CNN
F 2 "Connector_JST:JST_PH_S2B-PH-K_1x02_P2.00mm_Horizontal" H 4275 6000 50  0001 C CNN
F 3 "~" H 4275 6000 50  0001 C CNN
	1    4275 6000
	-1   0    0    1   
$EndComp
$Comp
L Connector_Generic:Conn_01x02 J10
U 1 1 6205E77A
P 4300 6625
F 0 "J10" H 4300 6350 50  0000 C CNN
F 1 "JST PH 1X2" H 4300 6425 50  0000 C CNN
F 2 "Connector_JST:JST_PH_S2B-PH-K_1x02_P2.00mm_Horizontal" H 4300 6625 50  0001 C CNN
F 3 "~" H 4300 6625 50  0001 C CNN
	1    4300 6625
	-1   0    0    1   
$EndComp
$Comp
L Connector_Generic:Conn_01x02 J4
U 1 1 6205D04D
P 2850 5850
F 0 "J4" H 2768 5525 50  0000 C CNN
F 1 "XT-30" H 2768 5616 50  0000 C CNN
F 2 "Control_Box:XT30PWM" H 2850 5850 50  0001 C CNN
F 3 "~" H 2850 5850 50  0001 C CNN
	1    2850 5850
	1    0    0    -1  
$EndComp
Wire Notes Line
	4750 6075 5125 6075
Wire Notes Line
	5125 6075 5125 6275
Wire Notes Line
	5125 6275 4750 6275
Wire Wire Line
	2300 5950 2650 5950
Connection ~ 2300 5950
Text Notes 2150 5675 0    50   ~ 0
XT-30 shape prevents reverse polarity. \nPad 1 of the footprint that is used in\n this project gets connected to +. 
Wire Notes Line
	2125 5700 3700 5700
Wire Notes Line
	3700 5700 3700 5400
Wire Notes Line
	3700 5400 2125 5400
Wire Notes Line
	2125 5400 2125 5700
Wire Wire Line
	2575 6875 3275 6875
$EndSCHEMATC
