(module LOGO (layer F.Cu)
  (at 0 0)
 (fp_text reference "G***" (at 0 0) (layer F.SilkS) hide
  (effects (font (thickness 0.3)))
  )
  (fp_text value "LOGO" (at 0.75 0) (layer F.SilkS) hide
  (effects (font (thickness 0.3)))
  )
  (fp_poly (pts (xy 0.160444 -2.700619) (xy 0.321705 -2.690136) (xy 0.458729 -2.672520) (xy 0.477983 -2.668965) (xy 0.802325 -2.587022) (xy 1.109544 -2.471760) (xy 1.397527 -2.325004) (xy 1.664159 -2.148577)
     (xy 1.907325 -1.944305) (xy 2.124911 -1.714011) (xy 2.314802 -1.459521) (xy 2.474885 -1.182659) (xy 2.603044 -0.885249) (xy 2.627892 -0.813803) (xy 2.675696 -0.663272) (xy 2.711239 -0.532020)
     (xy 2.736196 -0.409101) (xy 2.752242 -0.283572) (xy 2.761052 -0.144486) (xy 2.764303 0.019100) (xy 2.764443 0.078154) (xy 2.762376 0.251267) (xy 2.755341 0.396358) (xy 2.741717 0.524338)
     (xy 2.719885 0.646119) (xy 2.688224 0.772611) (xy 2.645114 0.914726) (xy 2.636082 0.942597) (xy 2.520599 1.234484) (xy 2.370213 1.513287) (xy 2.187935 1.775381) (xy 1.976779 2.017139)
     (xy 1.739755 2.234937) (xy 1.479876 2.425148) (xy 1.328615 2.516510) (xy 1.251933 2.557049) (xy 1.167388 2.597759) (xy 1.082513 2.635517) (xy 1.004840 2.667203) (xy 0.941904 2.689696)
     (xy 0.901238 2.699873) (xy 0.890158 2.698181) (xy 0.880885 2.676485) (xy 0.859808 2.623663) (xy 0.829000 2.545118) (xy 0.790539 2.446253) (xy 0.746499 2.332471) (xy 0.698957 2.209174)
     (xy 0.649987 2.081765) (xy 0.601667 1.955647) (xy 0.556071 1.836223) (xy 0.515276 1.728895) (xy 0.481356 1.639067) (xy 0.456388 1.572140) (xy 0.442448 1.533517) (xy 0.440919 1.528884)
     (xy 0.436902 1.495427) (xy 0.445378 1.484923) (xy 0.466929 1.495792) (xy 0.513879 1.525679) (xy 0.580109 1.570498) (xy 0.659499 1.626166) (xy 0.693541 1.650536) (xy 0.776174 1.708560)
     (xy 0.848029 1.756235) (xy 0.903069 1.789769) (xy 0.935257 1.805368) (xy 0.940461 1.805691) (xy 0.944899 1.784157) (xy 0.948870 1.728695) (xy 0.952218 1.644456) (xy 0.954786 1.536587)
     (xy 0.956416 1.410237) (xy 0.956954 1.270555) (xy 0.956950 1.263962) (xy 0.956837 1.099466) (xy 0.956037 0.969284) (xy 0.953410 0.868656) (xy 0.947816 0.792821) (xy 0.938113 0.737020)
     (xy 0.923162 0.696492) (xy 0.901821 0.666476) (xy 0.872952 0.642214) (xy 0.835412 0.618944) (xy 0.797199 0.597172) (xy 0.742888 0.563124) (xy 0.713721 0.532151) (xy 0.699695 0.490244)
     (xy 0.694263 0.453003) (xy 0.671459 0.285409) (xy 0.646393 0.147233) (xy 0.616376 0.028818) (xy 0.578722 -0.079494) (xy 0.530743 -0.187360) (xy 0.498215 -0.251451) (xy 0.421428 -0.380846)
     (xy 0.335383 -0.497367) (xy 0.244850 -0.596401) (xy 0.154597 -0.673331) (xy 0.069393 -0.723543) (xy -0.005993 -0.742423) (xy -0.009176 -0.742462) (xy -0.088906 -0.724759) (xy -0.177535 -0.674157)
     (xy -0.270426 -0.594412) (xy -0.362942 -0.489283) (xy -0.420849 -0.408863) (xy -0.530165 -0.213101) (xy -0.613396 0.007630) (xy -0.671270 0.255534) (xy -0.693889 0.416073) (xy -0.701742 0.476344)
     (xy -0.714172 0.515620) (xy -0.739276 0.545688) (xy -0.785153 0.578334) (xy -0.820823 0.600815) (xy -0.882304 0.643883) (xy -0.931273 0.686616) (xy -0.956076 0.718084) (xy -0.962940 0.753535)
     (xy -0.968550 0.825366) (xy -0.972807 0.930895) (xy -0.975612 1.067441) (xy -0.976864 1.232324) (xy -0.976923 1.280688) (xy -0.976737 1.436857) (xy -0.975999 1.558255) (xy -0.974438 1.649187)
     (xy -0.971784 1.713958) (xy -0.967768 1.756874) (xy -0.962119 1.782238) (xy -0.954568 1.794357) (xy -0.944844 1.797536) (xy -0.944501 1.797538) (xy -0.917089 1.786536) (xy -0.865521 1.756481)
     (xy -0.796875 1.711803) (xy -0.718232 1.656932) (xy -0.708189 1.649677) (xy -0.610734 1.579700) (xy -0.540345 1.531133) (xy -0.493035 1.501664) (xy -0.464819 1.488981) (xy -0.451709 1.490771)
     (xy -0.449385 1.499549) (xy -0.456164 1.522223) (xy -0.475137 1.575842) (xy -0.504252 1.655071) (xy -0.541460 1.754574) (xy -0.584713 1.869016) (xy -0.631960 1.993062) (xy -0.681152 2.121376)
     (xy -0.730239 2.248624) (xy -0.777171 2.369469) (xy -0.819900 2.478576) (xy -0.856376 2.570611) (xy -0.884548 2.640238) (xy -0.902368 2.682121) (xy -0.907450 2.691962) (xy -0.935133 2.694255)
     (xy -0.990337 2.679080) (xy -1.067166 2.649229) (xy -1.159729 2.607495) (xy -1.262132 2.556673) (xy -1.368480 2.499555) (xy -1.472882 2.438934) (xy -1.566392 2.379644) (xy -1.818831 2.188044)
     (xy -2.046418 1.968169) (xy -2.247298 1.723340) (xy -2.419610 1.456879) (xy -2.561498 1.172107) (xy -2.671103 0.872345) (xy -2.746567 0.560915) (xy -2.786032 0.241138) (xy -2.788631 0.194803)
     (xy -2.785087 -0.126831) (xy -2.744783 -0.440344) (xy -2.669603 -0.743389) (xy -2.561435 -1.033624) (xy -2.422164 -1.308703) (xy -2.253677 -1.566283) (xy -2.057861 -1.804018) (xy -1.836600 -2.019565)
     (xy -1.591782 -2.210579) (xy -1.325293 -2.374715) (xy -1.039019 -2.509629) (xy -0.734847 -2.612977) (xy -0.483061 -2.670776) (xy -0.346806 -2.689049) (xy -0.186007 -2.700099) (xy -0.012859 -2.703948)
     (xy 0.160444 -2.700619) )(layer F.SilkS) (width  0.010000)
  )
  (fp_poly (pts (xy -2.795116 -1.398682) (xy -2.799209 -1.371095) (xy -2.819651 -1.319025) (xy -2.853998 -1.245577) (xy -2.912230 -1.111817) (xy -2.973141 -0.944867) (xy -3.037551 -0.742407) (xy -3.065567 -0.647191)
     (xy -3.076039 -0.626523) (xy -3.098523 -0.607349) (xy -3.138962 -0.586811) (xy -3.203301 -0.562048) (xy -3.297484 -0.530199) (xy -3.332129 -0.518938) (xy -3.557969 -0.438498) (xy -3.750788 -0.354061)
     (xy -3.908623 -0.266598) (xy -4.029507 -0.177081) (xy -4.037102 -0.170245) (xy -4.114678 -0.093421) (xy -4.164212 -0.027041) (xy -4.191038 0.038774) (xy -4.200492 0.113904) (xy -4.200770 0.132867)
     (xy -4.184150 0.231181) (xy -4.133316 0.325387) (xy -4.046801 0.417330) (xy -3.923139 0.508851) (xy -3.880978 0.535062) (xy -3.717984 0.621160) (xy -3.521489 0.704367) (xy -3.297064 0.782354)
     (xy -3.264641 0.792444) (xy -3.061206 0.854915) (xy -2.988364 1.072637) (xy -2.947835 1.184916) (xy -2.898777 1.307744) (xy -2.848847 1.422402) (xy -2.823141 1.476507) (xy -2.786039 1.553017)
     (xy -2.757457 1.615348) (xy -2.740691 1.656086) (xy -2.737956 1.668116) (xy -2.759659 1.667941) (xy -2.806311 1.661219) (xy -2.833077 1.656268) (xy -3.146992 1.586161) (xy -3.445678 1.502993)
     (xy -3.724185 1.408572) (xy -3.977559 1.304700) (xy -4.200850 1.193185) (xy -4.348250 1.103857) (xy -4.530466 0.963589) (xy -4.680063 0.808727) (xy -4.796546 0.642235) (xy -4.879419 0.467077)
     (xy -4.928186 0.286216) (xy -4.942350 0.102617) (xy -4.921416 -0.080758) (xy -4.864888 -0.260945) (xy -4.772269 -0.434979) (xy -4.643065 -0.599898) (xy -4.634855 -0.608680) (xy -4.485845 -0.749035)
     (xy -4.315492 -0.875507) (xy -4.119989 -0.990181) (xy -3.895532 -1.095141) (xy -3.638315 -1.192468) (xy -3.467429 -1.247837) (xy -3.378609 -1.273735) (xy -3.275317 -1.301709) (xy -3.165558 -1.329837)
     (xy -3.057333 -1.356196) (xy -2.958646 -1.378865) (xy -2.877501 -1.395919) (xy -2.821899 -1.405437) (xy -2.805884 -1.406770) (xy -2.795116 -1.398682) )(layer F.SilkS) (width  0.010000)
  )
  (fp_poly (pts (xy 2.783871 -1.417890) (xy 2.837735 -1.407798) (xy 2.916352 -1.390265) (xy 3.013311 -1.366936) (xy 3.122202 -1.339453) (xy 3.236614 -1.309462) (xy 3.350135 -1.278604) (xy 3.456355 -1.248526)
     (xy 3.548862 -1.220869) (xy 3.608713 -1.201584) (xy 3.867307 -1.105811) (xy 4.091606 -1.004379) (xy 4.286279 -0.894590) (xy 4.455997 -0.773744) (xy 4.605427 -0.639144) (xy 4.634854 -0.608680)
     (xy 4.766194 -0.443589) (xy 4.861172 -0.267597) (xy 4.919780 -0.084129) (xy 4.942011 0.103391) (xy 4.927858 0.291537) (xy 4.877315 0.476884) (xy 4.790375 0.656008) (xy 4.667031 0.825484)
     (xy 4.637780 0.858150) (xy 4.520803 0.972933) (xy 4.390145 1.078032) (xy 4.242720 1.174786) (xy 4.075439 1.264530) (xy 3.885216 1.348601) (xy 3.668962 1.428338) (xy 3.423590 1.505075)
     (xy 3.146012 1.580151) (xy 2.833141 1.654903) (xy 2.759807 1.671317) (xy 2.725837 1.675918) (xy 2.715846 1.673093) (xy 2.723843 1.653454) (xy 2.745644 1.605736) (xy 2.777963 1.537005)
     (xy 2.817516 1.454323) (xy 2.819452 1.450307) (xy 2.868297 1.342636) (xy 2.917229 1.223940) (xy 2.959427 1.111278) (xy 2.980645 1.047301) (xy 3.038230 0.859122) (xy 3.116384 0.838342)
     (xy 3.334022 0.773394) (xy 3.536239 0.699108) (xy 3.718944 0.617652) (xy 3.878044 0.531192) (xy 4.009446 0.441897) (xy 4.109058 0.351934) (xy 4.160448 0.285320) (xy 4.191079 0.205442)
     (xy 4.200312 0.111027) (xy 4.187418 0.020461) (xy 4.172432 -0.017661) (xy 4.106778 -0.108382) (xy 4.004723 -0.199441) (xy 3.868901 -0.289386) (xy 3.701947 -0.376761) (xy 3.506494 -0.460111)
     (xy 3.285178 -0.537982) (xy 3.162371 -0.575358) (xy 3.099830 -0.595257) (xy 3.065008 -0.614443) (xy 3.047655 -0.641452) (xy 3.038717 -0.678354) (xy 3.018749 -0.759913) (xy 2.986182 -0.865577)
     (xy 2.945021 -0.984077) (xy 2.899268 -1.104142) (xy 2.852926 -1.214503) (xy 2.832428 -1.259087) (xy 2.799669 -1.328904) (xy 2.775046 -1.383441) (xy 2.762160 -1.414619) (xy 2.761172 -1.418897)
     (xy 2.783871 -1.417890) )(layer F.SilkS) (width  0.010000)
  )
)
