(module PQ9-Connector_mod (layer F.Cu) (tedit 60C75CB6)
  (fp_text reference REF** (at 0 14.732) (layer F.SilkS)
    (effects (font (size 1 1) (thickness 0.15)))
  )
  (fp_text value PQ9-Connector_mod (at -0.508 35.56) (layer F.Fab)
    (effects (font (size 1 1) (thickness 0.15)))
  )
  (fp_line (start 18.25 2.492) (end 17.85 2.092) (layer F.SilkS) (width 0.12))
  (fp_line (start 17.85 4.092) (end 18.25 4.492) (layer F.SilkS) (width 0.12))
  (fp_line (start 21.05 -13.508) (end -20.95 -13.508) (layer F.Fab) (width 0.1))
  (fp_line (start -20.95 28.492) (end 21.05 28.492) (layer F.Fab) (width 0.1))
  (fp_line (start 19.85 4.492) (end 20.25 4.892) (layer F.SilkS) (width 0.12))
  (fp_line (start 18.25 4.492) (end 17.85 4.892) (layer F.SilkS) (width 0.12))
  (fp_line (start 20.25 6.092) (end 19.85 6.492) (layer F.SilkS) (width 0.12))
  (fp_line (start 18.05 -13.508) (end -17.95 -13.508) (layer F.SilkS) (width 0.12))
  (fp_line (start 19.85 6.492) (end 20.25 6.892) (layer F.SilkS) (width 0.12))
  (fp_line (start 20.25 8.092) (end 19.85 8.492) (layer F.SilkS) (width 0.12))
  (fp_line (start 19.85 2.492) (end 20.25 2.892) (layer F.SilkS) (width 0.12))
  (fp_line (start 17.75 16.792) (end 17.75 -1.808) (layer F.CrtYd) (width 0.05))
  (fp_line (start 17.85 6.092) (end 18.25 6.492) (layer F.SilkS) (width 0.12))
  (fp_line (start 18.25 6.492) (end 17.85 6.892) (layer F.SilkS) (width 0.12))
  (fp_line (start 19.85 8.492) (end 20.25 8.892) (layer F.SilkS) (width 0.12))
  (fp_line (start 17.85 8.092) (end 18.25 8.492) (layer F.SilkS) (width 0.12))
  (fp_line (start 17.75 -1.808) (end 20.35 -1.808) (layer F.CrtYd) (width 0.05))
  (fp_line (start 20.35 16.792) (end 17.85 16.792) (layer F.CrtYd) (width 0.05))
  (fp_line (start 20.25 -1.708) (end 17.85 -1.708) (layer F.SilkS) (width 0.12))
  (fp_line (start 17.85 16.792) (end 17.75 16.792) (layer F.CrtYd) (width 0.05))
  (fp_line (start 18.45 16.692) (end 19.65 16.692) (layer F.SilkS) (width 0.12))
  (fp_line (start 20.25 -1.708) (end 20.25 0.492) (layer F.SilkS) (width 0.12))
  (fp_line (start 21.05 28.492) (end 21.05 -13.508) (layer F.Fab) (width 0.1))
  (fp_line (start 21.05 -10.508) (end 21.05 25.492) (layer F.SilkS) (width 0.12))
  (fp_line (start 17.85 -1.708) (end 17.85 0.492) (layer F.SilkS) (width 0.12))
  (fp_line (start -20.95 -10.508) (end -20.95 -8.508) (layer F.SilkS) (width 0.12))
  (fp_line (start 20.25 2.092) (end 19.85 2.492) (layer F.SilkS) (width 0.12))
  (fp_line (start 20.35 -1.808) (end 20.35 16.792) (layer F.CrtYd) (width 0.05))
  (fp_line (start 17.85 2.892) (end 18.25 2.492) (layer F.SilkS) (width 0.12))
  (fp_line (start 20.25 4.092) (end 19.85 4.492) (layer F.SilkS) (width 0.12))
  (fp_line (start 18.05 28.492) (end -17.95 28.492) (layer F.SilkS) (width 0.12))
  (fp_line (start -20.95 -13.508) (end -20.95 28.492) (layer F.Fab) (width 0.1))
  (fp_line (start -19.95 -7.508) (end -19.95 22.492) (layer F.SilkS) (width 0.12))
  (fp_line (start -20.95 25.492) (end -20.95 23.492) (layer F.SilkS) (width 0.12))
  (fp_line (start 17.85 16.092) (end 18.45 16.692) (layer F.SilkS) (width 0.12))
  (fp_line (start 17.85 6.892) (end 17.85 8.092) (layer F.SilkS) (width 0.12))
  (fp_line (start 17.85 8.892) (end 17.85 10.092) (layer F.SilkS) (width 0.12))
  (fp_line (start 20.25 10.892) (end 20.25 12.092) (layer F.SilkS) (width 0.12))
  (fp_line (start 18.25 8.492) (end 17.85 8.892) (layer F.SilkS) (width 0.12))
  (fp_line (start 20.25 14.892) (end 20.25 16.092) (layer F.SilkS) (width 0.12))
  (fp_line (start 20.25 10.092) (end 19.85 10.492) (layer F.SilkS) (width 0.12))
  (fp_line (start 20.25 2.092) (end 20.25 1.092) (layer F.SilkS) (width 0.12))
  (fp_line (start 20.25 4.892) (end 20.25 6.092) (layer F.SilkS) (width 0.12))
  (fp_line (start 20.25 14.092) (end 19.85 14.492) (layer F.SilkS) (width 0.12))
  (fp_line (start 18.25 12.492) (end 17.85 12.892) (layer F.SilkS) (width 0.12))
  (fp_line (start 17.85 4.892) (end 17.85 6.092) (layer F.SilkS) (width 0.12))
  (fp_line (start 17.85 2.892) (end 17.85 4.092) (layer F.SilkS) (width 0.12))
  (fp_line (start 17.85 1.092) (end 17.85 2.092) (layer F.SilkS) (width 0.12))
  (fp_line (start 20.25 12.092) (end 19.85 12.492) (layer F.SilkS) (width 0.12))
  (fp_line (start 20.25 12.892) (end 20.25 14.092) (layer F.SilkS) (width 0.12))
  (fp_line (start 17.85 10.092) (end 18.25 10.492) (layer F.SilkS) (width 0.12))
  (fp_line (start 19.85 14.492) (end 20.25 14.892) (layer F.SilkS) (width 0.12))
  (fp_line (start 20.25 6.892) (end 20.25 8.092) (layer F.SilkS) (width 0.12))
  (fp_line (start 20.25 8.892) (end 20.25 10.092) (layer F.SilkS) (width 0.12))
  (fp_line (start 17.85 12.092) (end 18.25 12.492) (layer F.SilkS) (width 0.12))
  (fp_line (start 18.25 14.492) (end 17.85 14.892) (layer F.SilkS) (width 0.12))
  (fp_line (start 17.85 14.892) (end 17.85 16.092) (layer F.SilkS) (width 0.12))
  (fp_line (start 19.85 12.492) (end 20.25 12.892) (layer F.SilkS) (width 0.12))
  (fp_line (start 19.85 10.492) (end 20.25 10.892) (layer F.SilkS) (width 0.12))
  (fp_line (start 17.85 14.092) (end 18.25 14.492) (layer F.SilkS) (width 0.12))
  (fp_line (start 18.25 10.492) (end 17.85 10.892) (layer F.SilkS) (width 0.12))
  (fp_line (start 17.85 10.892) (end 17.85 12.092) (layer F.SilkS) (width 0.12))
  (fp_line (start 20.25 16.092) (end 19.65 16.692) (layer F.SilkS) (width 0.12))
  (fp_line (start 17.85 12.892) (end 17.85 14.092) (layer F.SilkS) (width 0.12))
  (fp_line (start 20.25 2.892) (end 20.25 4.092) (layer F.SilkS) (width 0.12))
  (fp_arc (start -17.95 25.492) (end -17.95 28.492) (angle 90) (layer F.SilkS) (width 0.12))
  (fp_arc (start -20.95 -7.508) (end -20.95 -8.508) (angle 89.9) (layer F.SilkS) (width 0.12))
  (fp_arc (start -17.95 -10.508) (end -20.95 -10.508) (angle 90) (layer F.SilkS) (width 0.12))
  (fp_arc (start -20.95 22.492) (end -19.95 22.492) (angle 90) (layer F.SilkS) (width 0.12))
  (fp_arc (start 18.05 -10.508) (end 18.05 -13.508) (angle 90) (layer F.SilkS) (width 0.12))
  (fp_arc (start 18.05 25.492) (end 21.05 25.492) (angle 90) (layer F.SilkS) (width 0.12))
  (fp_text user REF** (at 18.55 -5.408) (layer F.SilkS)
    (effects (font (size 1 1) (thickness 0.15)))
  )
  (fp_text user %R (at 12.75 -12.208) (layer F.Fab)
    (effects (font (size 1 1) (thickness 0.15)))
  )
  (fp_text user V1 (at 16.05 7.492) (layer F.SilkS)
    (effects (font (size 1 1) (thickness 0.15)))
  )
  (fp_text user D- (at 16.05 1.492) (layer F.SilkS)
    (effects (font (size 1 1) (thickness 0.15)))
  )
  (fp_text user D+ (at 16.05 3.492) (layer F.SilkS)
    (effects (font (size 1 1) (thickness 0.15)))
  )
  (fp_text user GND (at 16.05 15.492) (layer F.SilkS)
    (effects (font (size 1 1) (thickness 0.15)))
  )
  (fp_text user GND (at 16.05 5.492) (layer F.SilkS)
    (effects (font (size 1 1) (thickness 0.15)))
  )
  (fp_text user PQ9 (at 18.95 -3.408 180) (layer F.Fab)
    (effects (font (size 1 1) (thickness 0.15)))
  )
  (fp_text user V4 (at 16.05 13.492) (layer F.SilkS)
    (effects (font (size 1 1) (thickness 0.15)))
  )
  (fp_text user V3 (at 16.05 11.492) (layer F.SilkS)
    (effects (font (size 1 1) (thickness 0.15)))
  )
  (fp_text user V2 (at 16.05 9.492) (layer F.SilkS)
    (effects (font (size 1 1) (thickness 0.15)))
  )
  (fp_text user RST (at 16.05 -0.508) (layer F.SilkS)
    (effects (font (size 1 1) (thickness 0.15)))
  )
  (pad 6 thru_hole oval (at 19.05 9.492 270) (size 1.5 1.5) (drill 0.9) (layers *.Cu *.Mask)
    (solder_mask_margin 0.2))
  (pad 4 thru_hole oval (at 19.05 5.492 270) (size 1.5 1.5) (drill 0.9) (layers *.Cu *.Mask)
    (solder_mask_margin 0.2))
  (pad 2 thru_hole oval (at 19.05 1.492 270) (size 1.5 1.5) (drill 0.9) (layers *.Cu *.Mask)
    (solder_mask_margin 0.2))
  (pad 1 thru_hole rect (at 19.05 -0.508 90) (size 1.5 1.5) (drill 0.9) (layers *.Cu *.Mask)
    (solder_mask_margin 0.2))
  (pad 9 thru_hole oval (at 19.05 15.492 270) (size 1.5 1.5) (drill 0.9) (layers *.Cu *.Mask)
    (solder_mask_margin 0.2))
  (pad "" np_thru_hole circle (at -17.95 -10.508 270) (size 5 5) (drill 2.5) (layers *.Cu *.Mask)
    (solder_mask_margin 0.5))
  (pad "" np_thru_hole circle (at -17.95 25.492 270) (size 5 5) (drill 2.5) (layers *.Cu *.Mask)
    (solder_mask_margin 0.5))
  (pad 7 thru_hole oval (at 19.05 11.492 270) (size 1.5 1.5) (drill 0.9) (layers *.Cu *.Mask)
    (solder_mask_margin 0.2))
  (pad 8 thru_hole oval (at 19.05 13.492 270) (size 1.5 1.5) (drill 0.9) (layers *.Cu *.Mask)
    (solder_mask_margin 0.2))
  (pad 3 thru_hole oval (at 19.05 3.492 270) (size 1.5 1.5) (drill 0.9) (layers *.Cu *.Mask)
    (solder_mask_margin 0.2))
  (pad 5 thru_hole oval (at 19.05 7.492 270) (size 1.5 1.5) (drill 0.9) (layers *.Cu *.Mask)
    (solder_mask_margin 0.2))
)
